Level,Accumulated XP
1,0
2,100
3,400
4,900
5,1600
6,2500
7,3500
8,4600
9,5800
10,7100
11,8500
12,10000
13,11600
14,13300
15,15100
16,17000
17,19000
18,21000
19,23000
20,25000
21,27000
22,29000
23,31000
24,33000
25,35000
26,37000
27,39100
28,41300
29,43600
30,46000
31,48500
32,51100
33,53800
34,56600
35,59500
36,62500
37,65500
38,68500
39,71500
40,74700
41,78100
42,81700
43,85500
44,89500
45,93700
46,98100
47,102700
48,107500
49,112500
50,117700
51,123200
52,129000
53,135000
54,141000
55,147000
56,153000
57,159000
58,165000
59,171000
60,177000
61,183000
62,189500
63,196500
64,204000
65,212000
66,220500
67,229500
68,239000
69,249000
70,259500
71,270500
72,282000
73,294000
74,306500
75,319500
76,333000
77,347000
78,361500
79,376500
80,392000
81,408000
82,424500
83,441500
84,459000
85,477000
86,495500
87,514500
88,534000
89,554000
90,574500
91,595500
92,617000
93,639000
94,661500
95,684500
96,708000
97,732000
98,756500
99,781500